<svg width="730" height="730" viewBox="0 0 730 730" fill="none" xmlns="http://www.w3.org/2000/svg">
<rect width="730" height="730" rx="365" fill="#65DEDE"/>
<rect width="730" height="730" rx="365" fill="url(#paint0_radial)" fill-opacity="0.8"/>
<path fill-rule="evenodd" clip-rule="evenodd" d="M350.869 77.9783L373.143 161.055C440.054 149.256 497.227 155.463 519.056 213.81C532.866 250.565 526.384 278.83 508.118 300.535C505.174 304.033 501.925 307.361 498.405 310.526C503.205 310.398 507.888 310.462 512.444 310.735C556.708 313.392 588.889 335.881 599.091 395.618C613.074 477.45 559.203 514.841 475.365 542.539L497.812 626.427L447.158 640L424.999 557.245C423.179 557.736 421.352 558.225 419.518 558.713C411.214 560.923 402.762 563.113 394.118 565.288C390.91 566.095 387.676 566.9 384.412 567.703L406.704 650.839L356.102 664.383L333.545 580.374C329.467 581.432 325.358 582.486 321.223 583.547C313.33 585.572 305.34 587.621 297.278 589.771L231.368 607.432L225.235 544.352C225.235 544.352 237.426 541.287 247.786 538.571C249.423 538.142 251.014 537.722 252.504 537.324C257.66 535.946 261.608 534.834 262.056 534.545C262.075 534.533 262.087 534.523 262.093 534.514C262.102 534.502 262.1 534.492 262.086 534.485C265.956 533.443 268.857 531.857 271.014 529.966C276.849 524.853 277.242 517.506 276.641 512.626L215.642 285.039C211.79 277.008 204.404 268.74 190.455 269.138C187.47 269.224 184.184 269.706 180.567 270.672C180.574 270.658 180.571 270.647 180.558 270.64C180.543 270.631 180.515 270.626 180.474 270.625C179.819 270.608 175.895 271.599 170.84 272.96C169.842 273.228 168.801 273.511 167.731 273.804C163.022 275.092 157.776 276.566 153.398 277.806C147.908 279.362 143.78 280.551 143.78 280.551L129.301 226.551L199.179 207.857L199.245 208.103C202.442 207.247 205.657 206.364 208.89 205.462C216.294 203.395 223.793 201.225 231.386 199.023L209.14 115.961L259.751 102.405L281.578 183.819C284.778 182.892 287.982 181.965 291.187 181.042C301.451 178.086 311.718 175.172 321.875 172.45L300.213 91.5515L350.869 77.9783ZM309.64 165.421L287.967 84.48L357.939 65.7312L380.455 149.712C411.18 144.991 440.662 144.228 465.794 151.525C494.059 159.731 516.345 178.029 528.42 210.303C537.003 233.15 538.536 253.718 533.956 272.045C531.246 282.89 526.475 292.63 520.161 301.354C538.633 303.377 555.589 309.007 569.882 319.898C589.815 335.087 603.039 359.331 608.948 393.935C616.419 437.658 605.737 470.762 581.112 496.317C558.854 519.417 525.874 535.629 487.446 549.003L510.056 633.499L440.085 652.248L417.923 569.481C410.966 571.316 403.903 573.137 396.708 574.948L418.954 657.913L349.036 676.626L326.454 592.529C325.516 592.769 324.578 593.01 323.639 593.251C315.778 595.267 307.875 597.295 299.855 599.433L222.557 620.145L214.449 536.753L222.797 534.654L225.235 544.352C222.797 534.654 222.796 534.654 222.797 534.654L222.798 534.654L222.803 534.653L223.214 534.549C223.488 534.48 223.891 534.379 224.403 534.249C225.427 533.991 226.89 533.62 228.643 533.175C230.249 532.767 232.095 532.296 234.071 531.79L233.919 531.716L259.485 524.829C264.024 523.607 265.39 521.654 265.998 520.359C266.761 518.738 266.972 516.622 266.781 514.467L206.242 288.594C204.504 285.239 202.213 282.532 199.264 280.927C196.309 279.319 191.427 278.121 183.149 280.333L161.419 286.139L161.542 285.899C158.156 286.85 154.923 287.766 152.33 288.505C150.595 289 149.148 289.414 148.136 289.704C147.629 289.849 147.232 289.964 146.962 290.041L146.551 290.16L146.55 290.16C146.549 290.16 146.549 290.16 143.78 280.551L146.55 290.16L136.76 292.981L117.051 219.476L206.252 195.614L206.302 195.802C210.557 194.614 214.851 193.389 219.19 192.14L196.893 108.889L266.821 90.1588L288.597 171.381C295.604 169.364 302.634 167.36 309.64 165.421ZM298.717 242.942L325.772 343.909C328.154 343.271 330.974 342.565 334.133 341.774C368.891 333.073 444.705 314.093 430.684 261.717C416.32 208.157 344.246 229.526 309.063 239.958C305.102 241.132 301.608 242.168 298.717 242.942ZM421.025 264.308C424.057 275.638 421.819 284.395 416.587 291.832C411.046 299.708 401.774 306.565 390.168 312.446C371.15 322.083 348.712 327.797 332.873 331.774L310.92 249.848C311.442 249.693 311.971 249.537 312.506 249.379C328.146 244.751 349.468 238.443 370.076 237.092C382.993 236.245 394.362 237.491 403.063 241.607C411.273 245.491 417.782 252.218 421.024 264.303M351.637 401.812L376.334 494.053C376.557 493.996 376.782 493.94 377.008 493.882C396.033 489.06 423.931 481.99 447.599 470.447C461.795 463.523 473.4 455.466 480.48 446.233C487.214 437.45 490.012 427.482 486.681 415.06C483.129 401.816 475.507 394.306 465.342 390.005C454.632 385.473 440.648 384.366 424.972 385.629C399.949 387.646 373.841 395.302 355.052 400.812C353.885 401.154 352.746 401.488 351.637 401.812ZM369.237 506.213C369.392 506.171 369.549 506.129 369.707 506.087C372.435 505.359 375.614 504.555 379.148 503.661C420.786 493.128 511.797 470.104 496.34 412.47C480.532 353.527 393.895 378.972 351.699 391.365C347.007 392.743 342.864 393.96 339.429 394.881L369.237 506.213Z" fill="#029E9E"/>
<path d="M498.405 310.526C523.767 287.72 535.091 256.488 519.056 213.81C497.227 155.463 440.054 149.256 373.143 161.055L350.869 77.9781L300.213 91.5514L321.875 172.45C308.547 176.022 295.03 179.924 281.578 183.819L259.751 102.405L209.14 115.961L231.386 199.023C220.477 202.186 209.763 205.285 199.245 208.103L199.179 207.857L129.301 226.551L143.78 280.551C143.78 280.551 181.001 269.825 180.567 270.672C201.081 265.19 210.965 275.289 215.642 285.039L276.641 512.626C277.464 519.311 276.422 530.623 262.086 534.485C262.892 534.883 225.235 544.352 225.235 544.352L231.368 607.432L297.278 589.771C309.563 586.495 321.681 583.452 333.545 580.374L356.102 664.383L406.704 650.839L384.412 567.703C398.409 564.257 411.879 560.779 424.999 557.245L447.158 640L497.812 626.427L475.365 542.539C559.203 514.841 613.074 477.45 599.091 395.618C587.84 329.733 549.851 309.157 498.405 310.526ZM298.717 242.942C327.287 235.287 414.703 202.127 430.684 261.717C445.98 318.853 354.369 336.247 325.771 343.909L298.717 242.942ZM369.237 506.213L339.429 394.881C373.752 385.674 478.775 346.973 496.34 412.469C513.185 475.28 403.578 496.984 369.237 506.213Z" fill="white"/>
<defs>
<radialGradient id="paint0_radial" cx="0" cy="0" r="1" gradientUnits="userSpaceOnUse" gradientTransform="translate(365 365) rotate(90) scale(365)">
<stop stop-color="white"/>
<stop offset="1" stop-color="white" stop-opacity="0"/>
</radialGradient>
</defs>
</svg>
