<svg width="10" height="12" viewBox="0 0 10 12" fill="none" xmlns="http://www.w3.org/2000/svg">
<path fill-rule="evenodd" clip-rule="evenodd" d="M5 12L10 6L7 6L7 1.31135e-07L3 3.0598e-07L3 6L2.62268e-07 6L5 12Z" fill="white"/>
</svg>
